// Jest Snapshot v1, https://goo.gl/fbAQLP

exports[`_getNodeFromAPI works 1`] = `
Object {
  "caption": "<div class=\\"gvs-caption\\"><span class=\\"gvs-caption-datetime\\">June 3 2022</span> - <span class=\\"gvs-caption-producer\\">User</span></div>",
  "gps": Array [
    2.1822941,
    48.9810589,
  ],
  "horizontalFov": 360,
  "id": "0005086d-65eb-4a90-9764-86b3661aaa77",
  "links": Array [
    Object {
      "gps": Array [
        2.1822633,
        48.9811134,
      ],
      "nodeId": "ccf5f468-38b8-4b42-8d79-b97f5391e0a3",
    },
    Object {
      "gps": Array [
        2.1823272,
        48.9810024,
      ],
      "nodeId": "127d9282-d082-46ca-bc09-4b0d8569dd2c",
    },
  ],
  "panorama": Object {
    "baseUrl": "https://geovisio.fr/api/pictures/0005086d-65eb-4a90-9764-86b3661aaa77/sd.webp",
    "cols": 8,
    "hdUrl": "https://geovisio.fr/api/pictures/0005086d-65eb-4a90-9764-86b3661aaa77/hd.jpg",
    "rows": 4,
    "tileUrl": [Function],
    "width": 5760,
  },
  "sequence": Object {
    "id": "bb129602-5ac1-4512-bf67-9ec1fa23033f",
    "nextPic": "ccf5f468-38b8-4b42-8d79-b97f5391e0a3",
    "prevPic": "127d9282-d082-46ca-bc09-4b0d8569dd2c",
  },
  "sphereCorrection": Object {
    "pan": 0,
  },
}
`;
