<?xml version="1.0" encoding="UTF-8" standalone="no"?>
<svg
   width="64"
   height="64"
   version="1.1"
   id="svg3"
   xmlns="http://www.w3.org/2000/svg"
   xmlnsSvg="http://www.w3.org/2000/svg">
  <defs
     id="defs7" />
  <path
     d="m 47.191182,9.8463618 h -7.807086 c -2.718629,0 -4.923181,-2.2044175 -4.923181,-4.9231809 C 34.460915,2.204012 36.665332,0 39.384096,0 H 59.076819 C 61.795447,0 64,2.204012 64,4.9231809 V 24.615904 c 0,2.718629 -2.204417,4.922641 -4.923181,4.922641 -2.719169,0 -4.923181,-2.204012 -4.923181,-4.922641 V 16.808818 L 40.404409,30.558047 c -1.922649,1.922649 -5.039807,1.922649 -6.962456,0 -1.922649,-1.922649 -1.922649,-5.039807 0,-6.962456 z M 16.808818,54.153638 h 7.807086 c 2.718629,0 4.922641,2.204012 4.922641,4.923181 C 29.538545,61.795447 27.334533,64 24.615904,64 H 4.9231809 C 2.204012,64 0,61.795583 0,59.076819 V 39.384096 c 0,-2.718629 2.204012,-4.923181 4.9231809,-4.923181 2.7186283,0 4.9231809,2.204417 4.9231809,4.923181 v 7.807086 L 23.595591,33.441953 c 1.922649,-1.922649 5.039807,-1.922649 6.962456,0 1.922649,1.922649 1.922649,5.039807 0,6.962456 z"
     id="path7"
     style="fill:#ffffff;fill-opacity:1;stroke-width:0.135141" />
</svg>
