<?xml version="1.0" encoding="UTF-8" standalone="no"?>
<svg
   width="64"
   height="64"
   version="1.1"
   id="svg3"
   xmlns="http://www.w3.org/2000/svg"
   xmlnsSvg="http://www.w3.org/2000/svg">
  <path
     d="M 19.692758,56.197145 V 2.0126606 L 1.5632003,9.1193325 C 0.6204633,9.4909745 0,10.39927 0,11.410826 v 48.896935 c 0,0.814739 0.4008795,1.575569 1.0759311,2.033685 0.6718081,0.457401 1.5261764,0.556167 2.2836594,0.25794 z M 39.384118,7.8025185 24.614851,2.0128268 V 56.197312 l 14.769267,5.78969 z m 4.923589,0 V 61.987002 L 62.417305,54.888148 C 63.342495,54.533405 64,53.63745 64,52.588838 V 3.6919025 C 64,2.8771635 63.598471,2.116981 62.924068,1.6588821 62.25226,1.2008331 61.397891,1.1027165 60.639746,1.4002929 Z"
     fill-rule="evenodd"
     style="fill:#ffffff;fill-opacity:1;stroke-width:0.166328" />
</svg>
